<svg class="prefix__MuiSvgIcon-root prefix__MuiSvgIcon-fontSizeMedium prefix__mui-1yvmeip-imageCanvasIcon"
  aria-hidden="true" viewBox="0 0 24 24" data-testid="EditTab.svgIcon">
  <g clip-path="url(#prefix__clip0_9290_4416)">
    <path
      d="M4 8h2V6h2V4H6V2H4v2H2v2h2v2zM20 16h-2v2h-2v2h2v2h2v-2h2v-2h-2v-2zM18 2h-2c0 2.206-1.794 4-4 4v2c2.206 0 4 1.794 4 4h2c0-2.206 1.794-4 4-4V6c-2.206 0-4-1.794-4-4zm-1 6.69A6.045 6.045 0 0015.31 7 6.045 6.045 0 0017 5.31 6.045 6.045 0 0018.69 7 6.045 6.045 0 0017 8.69zM8 12H6c0 2.206-1.794 4-4 4v2c2.206 0 4 1.794 4 4h2c0-2.206 1.794-4 4-4v-2c-2.206 0-4-1.794-4-4zm-1 6.69A6.045 6.045 0 005.31 17 6.045 6.045 0 007 15.31 6.045 6.045 0 008.69 17 6.045 6.045 0 007 18.69z" />
  </g>
  <defs>
    <clipPath id="prefix__clip0_9290_4416">
      <path fill="#fff" transform="translate(2 2)" d="M0 0h20v20H0z" />
    </clipPath>
  </defs>
</svg>